@0
## SINGLE NODE DET

@1
MOV UP, ACC,
MOV ACC, ANY
MOV ACC, ANY

@2
 MOV LEFT, ACC
 SWP
 SUB LEFT
 ADD -9
 JGZ FOUND
 ADD 18
 JLZ FOUND
 MOV 0, DOWN
 JMP DONE

FOUND:
 MOV 1, DOWN

DONE:

@3


@4


@5


@6
MOV UP, DOWN

@7


@8


@9
MOV UP, DOWN

@10

