@0


@1
MOV UP, DOWN
MOV UP, DOWN
MOV UP, RIGHT
MOV UP, RIGHT

@2
 MOV LEFT, ACC
 SWP
 MOV LEFT, ACC

LOP:
 SWP
 MOV ACC, DOWN
 SWP
 MOV ACC, DOWN
 MOV DOWN, ACC
 JNZ LOP

@3
MOV ANY, ACC
MOV ACC, LAST

@4
 MOV UP, ACC
 SWP
 MOV UP, ACC
 SWP
 MOV ACC, LEFT
LOP: MOV LEFT, ACC
 MOV ACC, RIGHT
 SWP
 MOV ACC, RIGHT
 ADD 1
 SWP
 MOV ACC, LEFT
 MOV RIGHT, ACC
 JNZ LOP
 MOV LEFT, NIL

@5
LP2:
 MOV LEFT, DOWN
 MOV LEFT, DOWN
 MOV UP, ACC
LOP:
 MOV 3, DOWN
 SUB 1
 JNZ LOP

 MOV UP, ACC
 SUB 1
 MOV ACC, UP
 MOV ACC, LEFT
 MOV -1, DOWN
 JNZ LP2

@6


@7


@8


@9
MOV UP, DOWN

@10

