@0
 MOV 0, ACC
LOP:
 MOV ACC, RIGHT
 MOV UP, ACC
 JNZ LOP
 MOV ACC, RIGHT
 MOV -1, DOWN

 JRO 0

@1
MOV UP, DOWN

@2
## STACK INDEXER
MOV UP, NIL
MOV 10, RIGHT
JRO -1

## ASSUME 10

@3
 MOV LEFT, NIL
ST: MOV LEFT, ACC
 SUB RIGHT
LOP:
 MOV UP, DOWN
 SUB 1
 JNZ LOP
 MOV UP, ACC
 MOV ACC, RIGHT
LOP2:
 MOV ACC, UP
 MOV DOWN, ACC
 JNZ LOP2
 MOV ACC, UP
 JMP ST

@4
MOV UP, LEFT
MOV LEFT, DOWN

@5


@6


@7
MOV UP, DOWN

@8

