@0
MOV UP, DOWN

@1
MOV UP, DOWN

@2


@3
MOV UP, DOWN

@4
MOV UP, DOWN

## JOINT TALKER

@5


@6


@7
ST:
 MOV UP, ACC
 JLZ BREAK
 MOV ACC, DOWN
 MOV ACC, RIGHT
 MOV RIGHT, NIL
 JMP ST

BREAK:
 MOV -1, RIGHT
 MOV RIGHT, DOWN

@8
ST:
 MOV UP, ACC
 JLZ BREAK
 MOV ACC, DOWN
 MOV LEFT, NIL
 MOV ACC, LEFT
 JMP ST

BREAK:
 MOV LEFT, DOWN
 MOV -1, LEFT

@9

